Get Cryptocurrency Related Data • ubci
…
please check encoding UTF-8 for unix-like os.

Sys.getlocale()
#> [1] "LC_CTYPE=C.UTF-8;LC_NUMERIC=C;LC_TIME=C.UTF-8;LC_COLLATE=C.UTF-8;LC_MONETARY=C.UTF-8;LC_MESSAGES=C.UTF-8;LC_PAPER=C.UTF-8;LC_NAME=C;LC_ADDRESS=C;LC_TELEPHONE=C;LC_MEASUREMENT=C.UTF-8;LC_IDENTIFICATION=C"

Example

index options

ubci_index_options() function return list of index code & descriptions.

library(ubci)
ubci_index_options()
#> # A tibble: 26 x 4
#>    index    name                                cate           smry       
#>    <chr>    <chr>                               <chr>          <chr>      
#>  1 UBMI     UBMI(Upbit Market Index)            Market Indexes It is calc…
#>  2 UBMI_ST  UBMI BTC quote(Upbit Market Index)  Market Indexes It is the …
#>  3 UBAI     UBAI(Upbit Altcoin Index)           Market Indexes It is calc…
#>  4 UBAI_ST  UBAI BTC quote(Upbit Altcoin Index) Market Indexes It is the …
#>  5 UTTI     UBMI 10(Upbit Top 10)               Market Indexes It is an i…
#>  6 UTHI     UBMI 30(Upbit Top 30)               Market Indexes It is an i…
#>  7 THMIDX10 Value Preservation and Basket       Theme Indexes  ""         
#>  8 THMIDX16 Simple Settlement Platform          Theme Indexes  ""         
#>  9 THMIDX05 Game                                Theme Indexes  ""         
#> 10 THMIDX14 Advertisement Industry              Theme Indexes  ""         
#> # ... with 16 more rows

ubci_index_options() function provide lang param for korean descriptions.

ubci_index_options(lang="ko")
#> # A tibble: 26 x 4
#>    index    name                                cate        smry          
#>    <chr>    <chr>                               <chr>       <chr>         
#>  1 UBMI     UBMI(Upbit Market Index)            시장 인덱스 업비트 거래소에 상장된 …
#>  2 UBMI_ST  UBMI BTC quote(Upbit Market Index)  시장 인덱스 UBMI 인덱스를 비트코…
#>  3 UBAI     UBAI(Upbit Altcoin Index)           시장 인덱스 업비트 거래소에 상장된 …
#>  4 UBAI_ST  UBAI BTC quote(Upbit Altcoin Index) 시장 인덱스 UBAI 인덱스를 비트코…
#>  5 UTTI     UBMI 10(Upbit Top 10)               시장 인덱스 업비트에 상장된 암호화폐…
#>  6 UTHI     UBMI 30(Upbit Top 30)               시장 인덱스 업비트에 상장된 암호화폐…
#>  7 THMIDX10 가치보존 및 바스켓                  테마 인덱스 다른 자산으로 구성된 바…
#>  8 THMIDX16 간편결제 플랫폼                     테마 인덱스 온라인 자산과 암호화폐를…
#>  9 THMIDX05 게임시장                            테마 인덱스 게임 산업과 연관되거나,…
#> 10 THMIDX14 광고산업                            테마 인덱스 다양한 형태의 광고와 관…
#> # ... with 16 more rows

index

ubci_index() function return index data with code, range of date with from/to.

loi<-ubci_index_options()
loi$index[1]
#> [1] "UBMI"
ubci_index(loi$index[1])
#> # A tibble: 256 x 6
#>    index date        open  high   low close
#>    <chr> <date>     <dbl> <dbl> <dbl> <dbl>
#>  1 UBMI  2018-06-13 1698. 1704. 1686. 1690.
#>  2 UBMI  2018-06-12 1796. 1810. 1672. 1697.
#>  3 UBMI  2018-06-11 1780. 1800. 1718. 1795.
#>  4 UBMI  2018-06-10 1970. 1970. 1722. 1779.
#>  5 UBMI  2018-06-09 1996. 2011. 1967. 1969.
#>  6 UBMI  2018-06-08 2011. 2012. 1975. 1995.
#>  7 UBMI  2018-06-07 2010. 2034. 1998. 2009.
#>  8 UBMI  2018-06-06 2021. 2025. 1974. 2010.
#>  9 UBMI  2018-06-05 1983. 2036. 1938. 2021.
#> 10 UBMI  2018-06-04 2050. 2073. 1960. 1983.
#> # ... with 246 more rows
tail(ubci_index(loi$index[1], from="2018-05-15"))
#> # A tibble: 6 x 6
#>   index date        open  high   low close
#>   <chr> <date>     <dbl> <dbl> <dbl> <dbl>
#> 1 UBMI  2018-05-20 2216. 2300. 2198. 2290.
#> 2 UBMI  2018-05-19 2231. 2255. 2197. 2215.
#> 3 UBMI  2018-05-18 2199. 2232. 2140. 2229.
#> 4 UBMI  2018-05-17 2281. 2317. 2177. 2200.
#> 5 UBMI  2018-05-16 2319. 2330. 2183. 2281.
#> 6 UBMI  2018-05-15 2419. 2439. 2301. 2317.
ubci_index(loi$index[1], to="2018-05-15")
#> # A tibble: 227 x 6
#>    index date        open  high   low close
#>    <chr> <date>     <dbl> <dbl> <dbl> <dbl>
#>  1 UBMI  2018-05-15 2419. 2439. 2301. 2317.
#>  2 UBMI  2018-05-14 2431. 2456. 2305. 2417.
#>  3 UBMI  2018-05-13 2313. 2445. 2274. 2430.
#>  4 UBMI  2018-05-12 2206. 2356. 2138. 2313.
#>  5 UBMI  2018-05-11 2446. 2465. 2088. 2239.
#>  6 UBMI  2018-05-10 2598. 2608. 2431. 2446.
#>  7 UBMI  2018-05-09 2549. 2594. 2441. 2583.
#>  8 UBMI  2018-05-08 2618. 2644. 2521. 2567.
#>  9 UBMI  2018-05-07 2700. 2700. 2538. 2612.
#> 10 UBMI  2018-05-06 2699. 2699. 2699. 2699.
#> # ... with 217 more rows
…
crypto price options

ubci_get_options() function return list of crypto code & name.

ubci_get_options()
#> # A tibble: 409 x 5
#>    code            name         exchange tradeStatus marketState
#>    <chr>           <chr>        <chr>    <chr>       <chr>      
#>  1 UPBIT.KRW-BTC   Bitcoin      UPBIT    ACTIVE      ACTIVE     
#>  2 UPBIT.KRW-DASH  Dash         UPBIT    PREVIEW     ACTIVE     
#>  3 UPBIT.KRW-ETH   Ethereum     UPBIT    PREVIEW     ACTIVE     
#>  4 UPBIT.BTC-NEO   NEO          UPBIT    ACTIVE      ACTIVE     
#>  5 UPBIT.BTC-BCC   Bitcoin Cash UPBIT    ACTIVE      ACTIVE     
#>  6 UPBIT.BTC-ETH   Ethereum     UPBIT    ACTIVE      ACTIVE     
#>  7 UPBIT.BTC-MTL   Metal        UPBIT    DELISTED    DELISTED   
#>  8 UPBIT.BTC-LTC   Litecoin     UPBIT    ACTIVE      ACTIVE     
#>  9 UPBIT.BTC-STRAT Stratis      UPBIT    ACTIVE      ACTIVE     
#> 10 UPBIT.BTC-XRP   Ripple       UPBIT    ACTIVE      ACTIVE     
#> # ... with 399 more rows

ubci_get_options() function provide lang param for korean name of crypto.

ubci_get_options(lang="ko")
#> # A tibble: 409 x 5
#>    code            name         exchange tradeStatus marketState
#>    <chr>           <chr>        <chr>    <chr>       <chr>      
#>  1 UPBIT.KRW-BTC   비트코인     UPBIT    ACTIVE      ACTIVE     
#>  2 UPBIT.KRW-DASH  대시         UPBIT    PREVIEW     ACTIVE     
#>  3 UPBIT.KRW-ETH   이더리움     UPBIT    PREVIEW     ACTIVE     
#>  4 UPBIT.BTC-NEO   네오         UPBIT    ACTIVE      ACTIVE     
#>  5 UPBIT.BTC-BCC   비트코인캐시 UPBIT    ACTIVE      ACTIVE     
#>  6 UPBIT.BTC-ETH   이더리움     UPBIT    ACTIVE      ACTIVE     
#>  7 UPBIT.BTC-MTL   메탈         UPBIT    DELISTED    DELISTED   
#>  8 UPBIT.BTC-LTC   라이트코인   UPBIT    ACTIVE      ACTIVE     
#>  9 UPBIT.BTC-STRAT 스트라티스   UPBIT    ACTIVE      ACTIVE     
#> 10 UPBIT.BTC-XRP   리플         UPBIT    ACTIVE      ACTIVE     
#> # ... with 399 more rows

crypto price

ubci_get() function return crypto prcie data with code, range of date with from/to.

loc<-ubci_get_options()
loc$code[1]
#> [1] "UPBIT.KRW-BTC"
ubci_get(loc$code[1])
#> # A tibble: 262 x 7
#>    code          date          open    high     low   close volume
#>    <chr>         <date>       <dbl>   <dbl>   <dbl>   <dbl>  <dbl>
#>  1 UPBIT.KRW-BTC 2018-06-13 7350000 7378000 7295000 7311000   700.
#>  2 UPBIT.KRW-BTC 2018-06-12 7635000 7685000 7270000 7350000  5044.
#>  3 UPBIT.KRW-BTC 2018-06-11 7576000 7662000 7362000 7635000  4309.
#>  4 UPBIT.KRW-BTC 2018-06-10 8233000 8247000 7425000 7576000  7445.
#>  5 UPBIT.KRW-BTC 2018-06-09 8341000 8370000 8205000 8233000  1658.
#>  6 UPBIT.KRW-BTC 2018-06-08 8375000 8385000 8268000 8341000  2686.
#>  7 UPBIT.KRW-BTC 2018-06-07 8358000 8490000 8330000 8375000  3432.
#>  8 UPBIT.KRW-BTC 2018-06-06 8359000 8400000 8208000 8359000  3334.
#>  9 UPBIT.KRW-BTC 2018-06-05 8241000 8400000 8130000 8360000  3715.
#> 10 UPBIT.KRW-BTC 2018-06-04 8419000 8477000 8206000 8248000  3616.
#> # ... with 252 more rows
tail(ubci_get(loc$code[1], from="2018-05-15"))
#> # A tibble: 6 x 7
#>   code          date          open    high     low   close volume
#>   <chr>         <date>       <dbl>   <dbl>   <dbl>   <dbl>  <dbl>
#> 1 UPBIT.KRW-BTC 2018-05-20 9112000 9398000 9051000 9370000  4901.
#> 2 UPBIT.KRW-BTC 2018-05-19 9165000 9299000 9068000 9112000  6285.
#> 3 UPBIT.KRW-BTC 2018-05-18 9072000 9186000 8881000 9165000  5904.
#> 4 UPBIT.KRW-BTC 2018-05-17 9297000 9390000 9020000 9090000  6922.
#> 5 UPBIT.KRW-BTC 2018-05-16 9500000 9542000 9015000 9297000 12219.
#> 6 UPBIT.KRW-BTC 2018-05-15 9802000 9879000 9458000 9500000  8326.
ubci_get(loc$code[1], to="2018-05-15")
#> # A tibble: 233 x 7
#>    code          date           open     high      low    close volume
#>    <chr>         <date>        <dbl>    <dbl>    <dbl>    <dbl>  <dbl>
#>  1 UPBIT.KRW-BTC 2018-05-15  9802000  9879000  9458000  9500000  8326.
#>  2 UPBIT.KRW-BTC 2018-05-14  9804000  9935000  9400000  9797000 12813.
#>  3 UPBIT.KRW-BTC 2018-05-13  9480000  9851000  9360000  9803000  8513.
#>  4 UPBIT.KRW-BTC 2018-05-12  9257000  9644000  9014000  9481000 10980.
#>  5 UPBIT.KRW-BTC 2018-05-11  9976000  9985000  8788000  9256000 20998.
#>  6 UPBIT.KRW-BTC 2018-05-10 10405000 10474000  9895000  9976000  9078.
#>  7 UPBIT.KRW-BTC 2018-05-09 10230000 10433000  9917000 10405000  9955.
#>  8 UPBIT.KRW-BTC 2018-05-08 10439000 10499000 10130000 10233000  7651.
#>  9 UPBIT.KRW-BTC 2018-05-07 10684000 10721000 10264000 10422000  8143.
#> 10 UPBIT.KRW-BTC 2018-05-06 10820000 10963000 10500000 10684000  8806.
#> # ... with 223 more rows
…
